{"failedCount":0,"prefixedPath":"src\/test\/java\/examples\/users\/APITask.feature","packageQualifiedName":"src.test.java.examples.users.APITask","loopIndex":-1,"relativePath":"src\/test\/java\/examples\/users\/APITask.feature","scenarioResults":[{"sectionIndex":0,"stepResults":[{"result":{"nanos":1191000,"millis":1.191,"status":"passed"},"step":{"background":true,"line":5,"prefix":"*","index":0,"text":"def siteUrl = \"https:\/\/reqres.in\/\""},"stepLog":"21:13:54.907 karate.env system property was: null \n"},{"result":{"nanos":7930900,"millis":7.9309,"status":"passed"},"step":{"line":8,"prefix":"Given","index":0,"text":"url siteUrl+\"\/api\/users?page=2\""}},{"result":{"nanos":1028143201,"millis":1028.143201,"status":"passed"},"step":{"line":9,"prefix":"And","index":1,"text":"method get"},"stepLog":"21:13:55.607 request:\n1 > GET https:\/\/reqres.in\/\/api\/users?page=2\n1 > Host: reqres.in\n1 > Connection: Keep-Alive\n1 > User-Agent: Apache-HttpClient\/4.5.13 (Java\/1.8.0_311)\n1 > Accept-Encoding: gzip,deflate\n\n\n21:13:55.955 response time in milliseconds: 346\n1 < 200\n1 < Date: Mon, 30 Oct 2023 15:45:01 GMT\n1 < Content-Type: application\/json; charset=utf-8\n1 < Transfer-Encoding: chunked\n1 < Connection: keep-alive\n1 < Report-To: {\"group\":\"heroku-nel\",\"max_age\":3600,\"endpoints\":[{\"url\":\"https:\/\/nel.heroku.com\/reports?ts=1698616835&sid=c4c9725f-1ab0-44d8-820f-430df2718e11&s=hWyNDARdtXRRZ2mQkSrEShWn7eAIj7AAVP0P8VKUJvk%3D\"}]}\n1 < Reporting-Endpoints: heroku-nel=https:\/\/nel.heroku.com\/reports?ts=1698616835&sid=c4c9725f-1ab0-44d8-820f-430df2718e11&s=hWyNDARdtXRRZ2mQkSrEShWn7eAIj7AAVP0P8VKUJvk%3D\n1 < Nel: {\"report_to\":\"heroku-nel\",\"max_age\":3600,\"success_fraction\":0.005,\"failure_fraction\":0.05,\"response_headers\":[\"Via\"]}\n1 < X-Powered-By: Express\n1 < Access-Control-Allow-Origin: *\n1 < Etag: W\/\"406-ut0vzoCuidvyMf8arZpMpJ6ZRDw\"\n1 < Via: 1.1 vegur\n1 < Cache-Control: max-age=14400\n1 < CF-Cache-Status: HIT\n1 < Age: 7053\n1 < Vary: Accept-Encoding\n1 < Server: cloudflare\n1 < CF-RAY: 81e4c86f4b572e99-HYD\n{\"page\":2,\"per_page\":6,\"total\":12,\"total_pages\":2,\"data\":[{\"id\":7,\"email\":\"michael.lawson@reqres.in\",\"first_name\":\"Michael\",\"last_name\":\"Lawson\",\"avatar\":\"https:\/\/reqres.in\/img\/faces\/7-image.jpg\"},{\"id\":8,\"email\":\"lindsay.ferguson@reqres.in\",\"first_name\":\"Lindsay\",\"last_name\":\"Ferguson\",\"avatar\":\"https:\/\/reqres.in\/img\/faces\/8-image.jpg\"},{\"id\":9,\"email\":\"tobias.funke@reqres.in\",\"first_name\":\"Tobias\",\"last_name\":\"Funke\",\"avatar\":\"https:\/\/reqres.in\/img\/faces\/9-image.jpg\"},{\"id\":10,\"email\":\"byron.fields@reqres.in\",\"first_name\":\"Byron\",\"last_name\":\"Fields\",\"avatar\":\"https:\/\/reqres.in\/img\/faces\/10-image.jpg\"},{\"id\":11,\"email\":\"george.edwards@reqres.in\",\"first_name\":\"George\",\"last_name\":\"Edwards\",\"avatar\":\"https:\/\/reqres.in\/img\/faces\/11-image.jpg\"},{\"id\":12,\"email\":\"rachel.howell@reqres.in\",\"first_name\":\"Rachel\",\"last_name\":\"Howell\",\"avatar\":\"https:\/\/reqres.in\/img\/faces\/12-image.jpg\"}],\"support\":{\"url\":\"https:\/\/reqres.in\/#support-heading\",\"text\":\"To keep ReqRes free, contributions towards server costs are appreciated!\"}}\n\n"},{"result":{"nanos":12300,"millis":0.0123,"status":"passed"},"step":{"line":10,"prefix":"Then","index":2,"text":"status 200"}}],"line":7,"description":"","durationMillis":1037.277401,"failed":false,"tags":["karate"],"executorName":"main","name":"Regress site get operation","startTime":1698680634723,"refId":"[1:7]","endTime":1698680635982,"exampleIndex":-1},{"sectionIndex":1,"stepResults":[{"result":{"nanos":580701,"millis":0.580701,"status":"passed"},"step":{"background":true,"line":5,"prefix":"*","index":0,"text":"def siteUrl = \"https:\/\/reqres.in\/\""},"stepLog":"21:13:55.989 karate.env system property was: null \n"},{"result":{"nanos":416701,"millis":0.416701,"status":"passed"},"step":{"line":13,"prefix":"Given","index":0,"text":"url siteUrl+\"\/api\/users\""}},{"result":{"nanos":15950600,"millis":15.9506,"status":"passed"},"step":{"endLine":20,"line":14,"prefix":"And","docString":"{\n\"name\": \"morpheus\",\n\"job\": \"leader\"\n}","index":1,"text":"request"}},{"result":{"nanos":490361600,"millis":490.3616,"status":"passed"},"step":{"line":21,"prefix":"When","index":2,"text":"method post"},"stepLog":"21:13:56.051 request:\n1 > POST https:\/\/reqres.in\/\/api\/users\n1 > Content-Type: application\/json; charset=UTF-8\n1 > Content-Length: 34\n1 > Host: reqres.in\n1 > Connection: Keep-Alive\n1 > User-Agent: Apache-HttpClient\/4.5.13 (Java\/1.8.0_311)\n1 > Accept-Encoding: gzip,deflate\n{\"name\":\"morpheus\",\"job\":\"leader\"}\n\n21:13:56.496 response time in milliseconds: 444\n1 < 201\n1 < Date: Mon, 30 Oct 2023 15:45:01 GMT\n1 < Content-Type: application\/json; charset=utf-8\n1 < Content-Length: 84\n1 < Connection: keep-alive\n1 < Report-To: {\"group\":\"heroku-nel\",\"max_age\":3600,\"endpoints\":[{\"url\":\"https:\/\/nel.heroku.com\/reports?ts=1698680701&sid=c4c9725f-1ab0-44d8-820f-430df2718e11&s=TR%2BgzPc6r7Ztw5F%2BzbSU62FL%2Fh%2BbiMwfgWm725we47g%3D\"}]}\n1 < Reporting-Endpoints: heroku-nel=https:\/\/nel.heroku.com\/reports?ts=1698680701&sid=c4c9725f-1ab0-44d8-820f-430df2718e11&s=TR%2BgzPc6r7Ztw5F%2BzbSU62FL%2Fh%2BbiMwfgWm725we47g%3D\n1 < Nel: {\"report_to\":\"heroku-nel\",\"max_age\":3600,\"success_fraction\":0.005,\"failure_fraction\":0.05,\"response_headers\":[\"Via\"]}\n1 < X-Powered-By: Express\n1 < Access-Control-Allow-Origin: *\n1 < Etag: W\/\"54-EKTNTmJ3UmJvJbBQyqi7\/3ZXitk\"\n1 < Via: 1.1 vegur\n1 < CF-Cache-Status: DYNAMIC\n1 < Server: cloudflare\n1 < CF-RAY: 81e4c870a8f72e87-HYD\n{\"name\":\"morpheus\",\"job\":\"leader\",\"id\":\"396\",\"createdAt\":\"2023-10-30T15:45:01.797Z\"}\n\n"},{"result":{"nanos":13701,"millis":0.013701,"status":"passed"},"step":{"line":22,"prefix":"Then","index":3,"text":"status 201"}},{"result":{"nanos":20615500,"millis":20.6155,"status":"passed"},"step":{"endLine":31,"line":23,"prefix":"Then","docString":"{\n\"name\": \"morpheus\",\n\"job\": \"leader\",\n\"id\": '#string',\n\"createdAt\": \"#string\"\n}","index":4,"text":"match response =="}}],"line":12,"description":"","durationMillis":527.938803,"failed":false,"tags":["karate"],"executorName":"main","name":"Regress site post operation","startTime":1698680635987,"refId":"[2:12]","endTime":1698680636518,"exampleIndex":-1},{"sectionIndex":2,"stepResults":[{"result":{"nanos":277701,"millis":0.277701,"status":"passed"},"step":{"background":true,"line":5,"prefix":"*","index":0,"text":"def siteUrl = \"https:\/\/reqres.in\/\""},"stepLog":"21:13:56.521 karate.env system property was: null \n"},{"result":{"nanos":761900,"millis":0.7619,"status":"passed"},"step":{"line":34,"prefix":"Given","index":0,"text":"url siteUrl+\"\/api\/users\/2\""}},{"result":{"nanos":127201,"millis":0.127201,"status":"passed"},"step":{"endLine":41,"line":35,"prefix":"And","docString":"{\n\"name\": \"morpheus\",\n\"job\": \"zion resident\"\n}","index":1,"text":"request"}},{"result":{"nanos":380249800,"millis":380.2498,"status":"passed"},"step":{"line":42,"prefix":"When","index":2,"text":"method put"},"stepLog":"21:13:56.525 request:\n1 > PUT https:\/\/reqres.in\/\/api\/users\/2\n1 > Content-Type: application\/json; charset=UTF-8\n1 > Content-Length: 41\n1 > Host: reqres.in\n1 > Connection: Keep-Alive\n1 > User-Agent: Apache-HttpClient\/4.5.13 (Java\/1.8.0_311)\n1 > Accept-Encoding: gzip,deflate\n{\"name\":\"morpheus\",\"job\":\"zion resident\"}\n\n21:13:56.903 response time in milliseconds: 378\n1 < 200\n1 < Date: Mon, 30 Oct 2023 15:45:02 GMT\n1 < Content-Type: application\/json; charset=utf-8\n1 < Transfer-Encoding: chunked\n1 < Connection: keep-alive\n1 < Report-To: {\"group\":\"heroku-nel\",\"max_age\":3600,\"endpoints\":[{\"url\":\"https:\/\/nel.heroku.com\/reports?ts=1698680702&sid=c4c9725f-1ab0-44d8-820f-430df2718e11&s=ymS04e5fCoVZ7RR0rud1IxSn2QZXzAKDNtbP5yc51xU%3D\"}]}\n1 < Reporting-Endpoints: heroku-nel=https:\/\/nel.heroku.com\/reports?ts=1698680702&sid=c4c9725f-1ab0-44d8-820f-430df2718e11&s=ymS04e5fCoVZ7RR0rud1IxSn2QZXzAKDNtbP5yc51xU%3D\n1 < Nel: {\"report_to\":\"heroku-nel\",\"max_age\":3600,\"success_fraction\":0.005,\"failure_fraction\":0.05,\"response_headers\":[\"Via\"]}\n1 < X-Powered-By: Express\n1 < Access-Control-Allow-Origin: *\n1 < Etag: W\/\"50-lWN33CHivl8U8BGf\/aqOt+b7mWA\"\n1 < Via: 1.1 vegur\n1 < CF-Cache-Status: DYNAMIC\n1 < Vary: Accept-Encoding\n1 < Server: cloudflare\n1 < CF-RAY: 81e4c873ae2c2e96-HYD\n{\"name\":\"morpheus\",\"job\":\"zion resident\",\"updatedAt\":\"2023-10-30T15:45:02.256Z\"}\n\n"},{"result":{"nanos":11300,"millis":0.0113,"status":"passed"},"step":{"line":43,"prefix":"Then","index":3,"text":"status 200"}},{"result":{"nanos":289000,"millis":0.289,"status":"passed"},"step":{"endLine":51,"line":44,"prefix":"Then","docString":"{\n\"name\": \"morpheus\",\n\"job\": \"zion resident\",\n\"updatedAt\": \"#string\"\n}","index":4,"text":"match response =="}}],"line":33,"description":"","durationMillis":381.716902,"failed":false,"tags":["karate"],"executorName":"main","name":"Regress site update operation","startTime":1698680636521,"refId":"[3:33]","endTime":1698680636904,"exampleIndex":-1},{"sectionIndex":3,"stepResults":[{"result":{"nanos":257299,"millis":0.257299,"status":"passed"},"step":{"background":true,"line":5,"prefix":"*","index":0,"text":"def siteUrl = \"https:\/\/reqres.in\/\""},"stepLog":"21:13:56.908 karate.env system property was: null \n"},{"result":{"nanos":238600,"millis":0.2386,"status":"passed"},"step":{"line":53,"prefix":"Given","index":0,"text":"url siteUrl+\"\/api\/users\/2\""}},{"result":{"nanos":406888799,"millis":406.888799,"status":"passed"},"step":{"line":54,"prefix":"When","index":1,"text":"method delete"},"stepLog":"21:13:56.911 request:\n1 > DELETE https:\/\/reqres.in\/\/api\/users\/2\n1 > Host: reqres.in\n1 > Connection: Keep-Alive\n1 > User-Agent: Apache-HttpClient\/4.5.13 (Java\/1.8.0_311)\n1 > Accept-Encoding: gzip,deflate\n\n\n21:13:57.316 response time in milliseconds: 405\n1 < 204\n1 < Date: Mon, 30 Oct 2023 15:45:02 GMT\n1 < Content-Length: 0\n1 < Connection: keep-alive\n1 < Report-To: {\"group\":\"heroku-nel\",\"max_age\":3600,\"endpoints\":[{\"url\":\"https:\/\/nel.heroku.com\/reports?ts=1698680702&sid=c4c9725f-1ab0-44d8-820f-430df2718e11&s=ymS04e5fCoVZ7RR0rud1IxSn2QZXzAKDNtbP5yc51xU%3D\"}]}\n1 < Reporting-Endpoints: heroku-nel=https:\/\/nel.heroku.com\/reports?ts=1698680702&sid=c4c9725f-1ab0-44d8-820f-430df2718e11&s=ymS04e5fCoVZ7RR0rud1IxSn2QZXzAKDNtbP5yc51xU%3D\n1 < Nel: {\"report_to\":\"heroku-nel\",\"max_age\":3600,\"success_fraction\":0.005,\"failure_fraction\":0.05,\"response_headers\":[\"Via\"]}\n1 < X-Powered-By: Express\n1 < Access-Control-Allow-Origin: *\n1 < Etag: W\/\"2-vyGp6PvFo4RvsFtPoIWeCReyIC8\"\n1 < Via: 1.1 vegur\n1 < CF-Cache-Status: DYNAMIC\n1 < Server: cloudflare\n1 < CF-RAY: 81e4c875f9d72e9f-HYD\n\n\n"},{"result":{"nanos":6999,"millis":0.006999,"status":"passed"},"step":{"line":55,"prefix":"Then","index":2,"text":"status 204"}}],"line":52,"description":"","durationMillis":407.391697,"failed":false,"tags":["karate"],"executorName":"main","name":"Regress site update operation","startTime":1698680636908,"refId":"[4:52]","endTime":1698680637317,"exampleIndex":-1}],"callDepth":0,"name":"Regress site curd operations","description":"","resultDate":"2023-10-30 09:13:57 PM","durationMillis":2354.324803,"passedCount":4}