{"failedCount":1,"prefixedPath":"src\/test\/java\/examples\/users\/APITask.feature","packageQualifiedName":"src.test.java.examples.users.APITask","loopIndex":-1,"relativePath":"src\/test\/java\/examples\/users\/APITask.feature","scenarioResults":[{"sectionIndex":0,"stepResults":[{"result":{"nanos":1186200,"millis":1.1862,"status":"passed"},"step":{"background":true,"line":5,"prefix":"*","index":0,"text":"def siteUrl = \"https:\/\/reqres.in\/\""},"stepLog":"19:25:18.276 karate.env system property was: null \n"},{"result":{"nanos":5835299,"millis":5.835299,"status":"passed"},"step":{"line":8,"prefix":"Given","index":0,"text":"url siteUrl+\"\/api\/users?page=2\""}},{"result":{"nanos":986711000,"millis":986.711,"status":"passed"},"step":{"line":9,"prefix":"And","index":1,"text":"method get"},"stepLog":"19:25:18.967 request:\n1 > GET https:\/\/reqres.in\/\/api\/users?page=2\n1 > Host: reqres.in\n1 > Connection: Keep-Alive\n1 > User-Agent: Apache-HttpClient\/4.5.13 (Java\/1.8.0_311)\n1 > Accept-Encoding: gzip,deflate\n\n\n19:25:19.263 response time in milliseconds: 294\n1 < 200\n1 < Date: Mon, 30 Oct 2023 13:56:24 GMT\n1 < Content-Type: application\/json; charset=utf-8\n1 < Transfer-Encoding: chunked\n1 < Connection: keep-alive\n1 < Report-To: {\"group\":\"heroku-nel\",\"max_age\":3600,\"endpoints\":[{\"url\":\"https:\/\/nel.heroku.com\/reports?ts=1698616835&sid=c4c9725f-1ab0-44d8-820f-430df2718e11&s=hWyNDARdtXRRZ2mQkSrEShWn7eAIj7AAVP0P8VKUJvk%3D\"}]}\n1 < Reporting-Endpoints: heroku-nel=https:\/\/nel.heroku.com\/reports?ts=1698616835&sid=c4c9725f-1ab0-44d8-820f-430df2718e11&s=hWyNDARdtXRRZ2mQkSrEShWn7eAIj7AAVP0P8VKUJvk%3D\n1 < Nel: {\"report_to\":\"heroku-nel\",\"max_age\":3600,\"success_fraction\":0.005,\"failure_fraction\":0.05,\"response_headers\":[\"Via\"]}\n1 < X-Powered-By: Express\n1 < Access-Control-Allow-Origin: *\n1 < Etag: W\/\"406-ut0vzoCuidvyMf8arZpMpJ6ZRDw\"\n1 < Via: 1.1 vegur\n1 < Cache-Control: max-age=14400\n1 < CF-Cache-Status: HIT\n1 < Age: 536\n1 < Vary: Accept-Encoding\n1 < Server: cloudflare\n1 < CF-RAY: 81e429568ebe2e9c-HYD\n{\"page\":2,\"per_page\":6,\"total\":12,\"total_pages\":2,\"data\":[{\"id\":7,\"email\":\"michael.lawson@reqres.in\",\"first_name\":\"Michael\",\"last_name\":\"Lawson\",\"avatar\":\"https:\/\/reqres.in\/img\/faces\/7-image.jpg\"},{\"id\":8,\"email\":\"lindsay.ferguson@reqres.in\",\"first_name\":\"Lindsay\",\"last_name\":\"Ferguson\",\"avatar\":\"https:\/\/reqres.in\/img\/faces\/8-image.jpg\"},{\"id\":9,\"email\":\"tobias.funke@reqres.in\",\"first_name\":\"Tobias\",\"last_name\":\"Funke\",\"avatar\":\"https:\/\/reqres.in\/img\/faces\/9-image.jpg\"},{\"id\":10,\"email\":\"byron.fields@reqres.in\",\"first_name\":\"Byron\",\"last_name\":\"Fields\",\"avatar\":\"https:\/\/reqres.in\/img\/faces\/10-image.jpg\"},{\"id\":11,\"email\":\"george.edwards@reqres.in\",\"first_name\":\"George\",\"last_name\":\"Edwards\",\"avatar\":\"https:\/\/reqres.in\/img\/faces\/11-image.jpg\"},{\"id\":12,\"email\":\"rachel.howell@reqres.in\",\"first_name\":\"Rachel\",\"last_name\":\"Howell\",\"avatar\":\"https:\/\/reqres.in\/img\/faces\/12-image.jpg\"}],\"support\":{\"url\":\"https:\/\/reqres.in\/#support-heading\",\"text\":\"To keep ReqRes free, contributions towards server costs are appreciated!\"}}\n\n"},{"result":{"nanos":16799,"millis":0.016799,"status":"passed"},"step":{"line":10,"prefix":"Then","index":2,"text":"status 200"}},{"result":{"nanos":7590100,"millis":7.5901,"status":"passed"},"step":{"line":11,"prefix":"And","index":3,"text":"print response"},"stepLog":"19:25:19.304 [print] {\n  \"page\": 2,\n  \"per_page\": 6,\n  \"total\": 12,\n  \"total_pages\": 2,\n  \"data\": [\n    {\n      \"id\": 7,\n      \"email\": \"michael.lawson@reqres.in\",\n      \"first_name\": \"Michael\",\n      \"last_name\": \"Lawson\",\n      \"avatar\": \"https:\/\/reqres.in\/img\/faces\/7-image.jpg\"\n    },\n    {\n      \"id\": 8,\n      \"email\": \"lindsay.ferguson@reqres.in\",\n      \"first_name\": \"Lindsay\",\n      \"last_name\": \"Ferguson\",\n      \"avatar\": \"https:\/\/reqres.in\/img\/faces\/8-image.jpg\"\n    },\n    {\n      \"id\": 9,\n      \"email\": \"tobias.funke@reqres.in\",\n      \"first_name\": \"Tobias\",\n      \"last_name\": \"Funke\",\n      \"avatar\": \"https:\/\/reqres.in\/img\/faces\/9-image.jpg\"\n    },\n    {\n      \"id\": 10,\n      \"email\": \"byron.fields@reqres.in\",\n      \"first_name\": \"Byron\",\n      \"last_name\": \"Fields\",\n      \"avatar\": \"https:\/\/reqres.in\/img\/faces\/10-image.jpg\"\n    },\n    {\n      \"id\": 11,\n      \"email\": \"george.edwards@reqres.in\",\n      \"first_name\": \"George\",\n      \"last_name\": \"Edwards\",\n      \"avatar\": \"https:\/\/reqres.in\/img\/faces\/11-image.jpg\"\n    },\n    {\n      \"id\": 12,\n      \"email\": \"rachel.howell@reqres.in\",\n      \"first_name\": \"Rachel\",\n      \"last_name\": \"Howell\",\n      \"avatar\": \"https:\/\/reqres.in\/img\/faces\/12-image.jpg\"\n    }\n  ],\n  \"support\": {\n    \"url\": \"https:\/\/reqres.in\/#support-heading\",\n    \"text\": \"To keep ReqRes free, contributions towards server costs are appreciated!\"\n  }\n}\n \n"},{"result":{"nanos":0,"errorMessage":"no step-definition method match found for: response contains ==\nsrc\/test\/java\/examples\/users\/APITask.feature:12","millis":0.0,"status":"failed"},"step":{"endLine":21,"line":12,"prefix":"Then","docString":"{\n        \"id\": 11,\n        \"email\": \"george.edwards@reqres.in\",\n        \"first_name\": \"George\",\n        \"last_name\": \"Edwards\",\n        \"avatar\": \"https:\/\/reqres.in\/img\/faces\/11-image.jpg\"\n    }","index":4,"text":"response contains =="},"stepLog":"19:25:19.305 src\/test\/java\/examples\/users\/APITask.feature:12\nThen response contains ==\n\"\"\"\n{\n        \"id\": 11,\n        \"email\": \"george.edwards@reqres.in\",\n        \"first_name\": \"George\",\n        \"last_name\": \"Edwards\",\n        \"avatar\": \"https:\/\/reqres.in\/img\/faces\/11-image.jpg\"\n    }\n\"\"\"\nno step-definition method match found for: response contains ==\nsrc\/test\/java\/examples\/users\/APITask.feature:12\n"}],"line":7,"description":"","durationMillis":1001.339398,"failed":true,"error":"no step-definition method match found for: response contains ==\nsrc\/test\/java\/examples\/users\/APITask.feature:12","tags":["karate"],"executorName":"main","name":"Regress site get operation","startTime":1698674118117,"refId":"[1:7]","endTime":1698674119305,"exampleIndex":-1}],"callDepth":0,"name":"Regress site curd operations","description":"","resultDate":"2023-10-30 07:25:19 PM","durationMillis":1001.339398,"passedCount":0}