{"failedCount":1,"prefixedPath":"src\/test\/java\/examples\/users\/APITask.feature","packageQualifiedName":"src.test.java.examples.users.APITask","loopIndex":-1,"relativePath":"src\/test\/java\/examples\/users\/APITask.feature","scenarioResults":[{"sectionIndex":0,"stepResults":[{"result":{"nanos":1185000,"millis":1.185,"status":"passed"},"step":{"background":true,"line":5,"prefix":"*","index":0,"text":"def siteUrl = \"https:\/\/reqres.in\/\""},"stepLog":"19:23:41.308 karate.env system property was: null \n"},{"result":{"nanos":8079701,"millis":8.079701,"status":"passed"},"step":{"line":8,"prefix":"Given","index":0,"text":"url siteUrl+\"\/api\/users?page=2\""}},{"result":{"nanos":1042498200,"millis":1042.4982,"status":"passed"},"step":{"line":9,"prefix":"And","index":1,"text":"method get"},"stepLog":"19:23:41.979 request:\n1 > GET https:\/\/reqres.in\/\/api\/users?page=2\n1 > Host: reqres.in\n1 > Connection: Keep-Alive\n1 > User-Agent: Apache-HttpClient\/4.5.13 (Java\/1.8.0_311)\n1 > Accept-Encoding: gzip,deflate\n\n\n19:23:42.363 response time in milliseconds: 381\n1 < 200\n1 < Date: Mon, 30 Oct 2023 13:54:47 GMT\n1 < Content-Type: application\/json; charset=utf-8\n1 < Transfer-Encoding: chunked\n1 < Connection: keep-alive\n1 < Report-To: {\"group\":\"heroku-nel\",\"max_age\":3600,\"endpoints\":[{\"url\":\"https:\/\/nel.heroku.com\/reports?ts=1698616835&sid=c4c9725f-1ab0-44d8-820f-430df2718e11&s=hWyNDARdtXRRZ2mQkSrEShWn7eAIj7AAVP0P8VKUJvk%3D\"}]}\n1 < Reporting-Endpoints: heroku-nel=https:\/\/nel.heroku.com\/reports?ts=1698616835&sid=c4c9725f-1ab0-44d8-820f-430df2718e11&s=hWyNDARdtXRRZ2mQkSrEShWn7eAIj7AAVP0P8VKUJvk%3D\n1 < Nel: {\"report_to\":\"heroku-nel\",\"max_age\":3600,\"success_fraction\":0.005,\"failure_fraction\":0.05,\"response_headers\":[\"Via\"]}\n1 < X-Powered-By: Express\n1 < Access-Control-Allow-Origin: *\n1 < Etag: W\/\"406-ut0vzoCuidvyMf8arZpMpJ6ZRDw\"\n1 < Via: 1.1 vegur\n1 < Cache-Control: max-age=14400\n1 < CF-Cache-Status: HIT\n1 < Age: 439\n1 < Vary: Accept-Encoding\n1 < Server: cloudflare\n1 < CF-RAY: 81e426f8db4f2e90-HYD\n{\"page\":2,\"per_page\":6,\"total\":12,\"total_pages\":2,\"data\":[{\"id\":7,\"email\":\"michael.lawson@reqres.in\",\"first_name\":\"Michael\",\"last_name\":\"Lawson\",\"avatar\":\"https:\/\/reqres.in\/img\/faces\/7-image.jpg\"},{\"id\":8,\"email\":\"lindsay.ferguson@reqres.in\",\"first_name\":\"Lindsay\",\"last_name\":\"Ferguson\",\"avatar\":\"https:\/\/reqres.in\/img\/faces\/8-image.jpg\"},{\"id\":9,\"email\":\"tobias.funke@reqres.in\",\"first_name\":\"Tobias\",\"last_name\":\"Funke\",\"avatar\":\"https:\/\/reqres.in\/img\/faces\/9-image.jpg\"},{\"id\":10,\"email\":\"byron.fields@reqres.in\",\"first_name\":\"Byron\",\"last_name\":\"Fields\",\"avatar\":\"https:\/\/reqres.in\/img\/faces\/10-image.jpg\"},{\"id\":11,\"email\":\"george.edwards@reqres.in\",\"first_name\":\"George\",\"last_name\":\"Edwards\",\"avatar\":\"https:\/\/reqres.in\/img\/faces\/11-image.jpg\"},{\"id\":12,\"email\":\"rachel.howell@reqres.in\",\"first_name\":\"Rachel\",\"last_name\":\"Howell\",\"avatar\":\"https:\/\/reqres.in\/img\/faces\/12-image.jpg\"}],\"support\":{\"url\":\"https:\/\/reqres.in\/#support-heading\",\"text\":\"To keep ReqRes free, contributions towards server costs are appreciated!\"}}\n\n"},{"result":{"nanos":16000,"millis":0.016,"status":"passed"},"step":{"line":10,"prefix":"Then","index":2,"text":"status 200"}},{"result":{"nanos":0,"errorMessage":"no step-definition method match found for: response contains\nsrc\/test\/java\/examples\/users\/APITask.feature:11","millis":0.0,"status":"failed"},"step":{"endLine":20,"line":11,"prefix":"Then","docString":"{\n        \"id\": 11,\n        \"email\": \"george.edwards@reqres.in\",\n        \"first_name\": \"George\",\n        \"last_name\": \"Edwards\",\n        \"avatar\": \"https:\/\/reqres.in\/img\/faces\/11-image.jpg\"\n    }","index":3,"text":"response contains"},"stepLog":"19:23:42.392 src\/test\/java\/examples\/users\/APITask.feature:11\nThen response contains\n\"\"\"\n{\n        \"id\": 11,\n        \"email\": \"george.edwards@reqres.in\",\n        \"first_name\": \"George\",\n        \"last_name\": \"Edwards\",\n        \"avatar\": \"https:\/\/reqres.in\/img\/faces\/11-image.jpg\"\n    }\n\"\"\"\nno step-definition method match found for: response contains\nsrc\/test\/java\/examples\/users\/APITask.feature:11\n"}],"line":7,"description":"","durationMillis":1051.778901,"failed":true,"error":"no step-definition method match found for: response contains\nsrc\/test\/java\/examples\/users\/APITask.feature:11","tags":["karate"],"executorName":"main","name":"Regress site get operation","startTime":1698674021158,"refId":"[1:7]","endTime":1698674022392,"exampleIndex":-1}],"callDepth":0,"name":"Regress site curd operations","description":"","resultDate":"2023-10-30 07:23:42 PM","durationMillis":1051.778901,"passedCount":0}